<?xml version="1.0" encoding="UTF-8"?>
<testsuite name="de.uks.se.ttc2015.refactoring.test.pullupmethod.doublepullup.DoublePullUpTest" tests="1" skipped="0" failures="0" errors="0" timestamp="2015-05-18T15:09:41" hostname="MSCHMIDT" time="0.015">
  <properties/>
  <testcase name="testDoublePullUp" classname="de.uks.se.ttc2015.refactoring.test.pullupmethod.doublepullup.DoublePullUpTest" time="0.015"/>
  <system-out><![CDATA[parse de.uks.se.ttc2015.refactoring.test.pullupmethod.doublepullup.situation.ChildClass1
parse de.uks.se.ttc2015.refactoring.test.pullupmethod.doublepullup.situation.ChildClass2
parse de.uks.se.ttc2015.refactoring.test.pullupmethod.doublepullup.situation.GrandParentClass
parse de.uks.se.ttc2015.refactoring.test.pullupmethod.doublepullup.situation.ParentClass1
parse de.uks.se.ttc2015.refactoring.test.pullupmethod.doublepullup.situation.ParentClass2
loaded model
]]></system-out>
  <system-err><![CDATA[]]></system-err>
</testsuite>
